[gd_scene load_steps=4 format=3 uid="uid://uwxns5pyanwm"]

[ext_resource type="Script" path="res://scenes/pipes/pipes.gd" id="1_68u1h"]
[ext_resource type="PackedScene" uid="uid://kba5r4bloabd" path="res://scenes/laser/laser.tscn" id="1_u7s46"]
[ext_resource type="PackedScene" uid="uid://bhbqo67e8toap" path="res://scenes/pipe/pipe.tscn" id="2_sfec1"]

[node name="Pipes" type="Node2D" groups=["pipes"]]
script = ExtResource("1_68u1h")

[node name="Laser" parent="." instance=ExtResource("1_u7s46")]

[node name="Lower" parent="." instance=ExtResource("2_sfec1")]
position = Vector2(0, 80)

[node name="Upper" parent="." instance=ExtResource("2_sfec1")]
position = Vector2(0, -80)
rotation = 3.14159

[node name="VisibleOnScreenNotifier2D" type="VisibleOnScreenNotifier2D" parent="."]
position = Vector2(120, -1)

[connection signal="body_exited" from="Laser" to="." method="_on_laser_body_exited"]
[connection signal="body_entered" from="Lower" to="." method="_on_pipe_body_entered"]
[connection signal="body_entered" from="Upper" to="." method="_on_pipe_body_entered"]
[connection signal="screen_exited" from="VisibleOnScreenNotifier2D" to="." method="_on_screen_exited"]
