[gd_resource type="LabelSettings" load_steps=2 format=3 uid="uid://cpasijw47i7lg"]

[ext_resource type="FontFile" uid="uid://chyindudtsjat" path="res://assets/fonts/LuckiestGuy-Regular.ttf" id="1_lrdfi"]

[resource]
font = ExtResource("1_lrdfi")
font_size = 60
font_color = Color(0.598907, 0.0461287, 0.129619, 1)
outline_size = 2
outline_color = Color(0.884383, 0.976819, 0.636577, 1)
shadow_size = 3
shadow_color = Color(0.556712, 0.0758523, 0.54843, 0)
