; Engine configuration file.
; It's best edited using the editor UI and not directly,
; since the parameters that go here are not all obvious.
;
; Format:
;   [section] ; section goes between []
;   param=value ; assign values to parameters

config_version=5

[application]

config/name="Tappy"
run/main_scene="res://scenes/main/main.tscn"
config/features=PackedStringArray("4.3", "Mobile")
config/icon="res://icon.svg"

[autoload]

GameManager="*res://singletons/game_manager.gd"
SignalManager="*res://singletons/signal_manager.gd"
ScoreManager="*res://singletons/score_manager.gd"

[display]

window/size/viewport_width=480
window/size/viewport_height=854
window/dpi/allow_hidpi=false
window/handheld/orientation=1

[input]

fly={
"deadzone": 0.5,
"events": [Object(InputEventKey,"resource_local_to_scene":false,"resource_name":"","device":-1,"window_id":0,"alt_pressed":false,"shift_pressed":false,"ctrl_pressed":false,"meta_pressed":false,"pressed":false,"keycode":0,"physical_keycode":32,"key_label":0,"unicode":32,"location":0,"echo":false,"script":null)
]
}

[rendering]

renderer/rendering_method="mobile"
